432-2023 - Lab 1
…
Applying the clean_names() function from the janitor package as part of the initial oh22 creation process, as I’ve done in my code below, is a sensible strategy. We hope you’ll adopt it when ingesting almost any data you ever try to pull into R.

library(janitor)
library(tidyverse)

knitr::opts_chunk$set(comment = NA)

oh22 <- read_csv("https://raw.githubusercontent.com/THOMASELOVE/432-data/master/data/oh_counties_2022.csv", show_col_types = FALSE) |>
  clean_names() |>
  mutate(fips = as.character(fips))

oh22

# A tibble: 88 × 43
   fips  state county    years…¹ sroh_…² phys_…³ ment_…⁴ lbw_pct smoke…⁵ obese…⁶
   <chr> <chr> <chr>       <dbl>   <dbl>   <dbl>   <dbl>   <dbl>   <dbl>   <dbl>
 1 39001 Ohio  Adams       11037    25.5    5.41    6.1      9.3    30.2    40  
 2 39003 Ohio  Allen        8518    20.1    4.53    5.35     9.7    22.8    39.3
 3 39005 Ohio  Ashland      7769    19.9    4.49    5.44     6      23.6    34.1
 4 39007 Ohio  Ashtabula    9749    24.7    5.07    5.73     8      27      43  
 5 39009 Ohio  Athens       7619    22.4    5.02    5.71     8.3    25      34.3
 6 39011 Ohio  Auglaize     6498    17.3    4.16    5.2      6.7    21.6    39.2
 7 39013 Ohio  Belmont      8782    20.5    4.48    5.38     8.4    25.8    36.6
 8 39015 Ohio  Brown       10510    21.2    4.68    5.6      7.7    24.4    37  
 9 39017 Ohio  Butler       9053    18.7    4.16    5.05     7.8    21.8    34.4
10 39019 Ohio  Carroll      8066    19.8    4.54    5.5      8.3    24.2    37.1
# … with 78 more rows, 33 more variables: food_env <dbl>, inactive_pct <dbl>,
#   exer_access <dbl>, exc_drink <dbl>, alc_drive <dbl>, sti_rate <dbl>,
#   teen_births <dbl>, uninsured <dbl>, pcp_ratio <dbl>, prev_hosp <dbl>,
#   hsgrads <dbl>, unemployed <dbl>, poor_kids <dbl>, income_ratio <dbl>,
#   associations <dbl>, pm2_5 <dbl>, h2oviol <chr>, sev_housing <dbl>,
#   drive_alone <dbl>, age_adj_mortality <dbl>, dm_prev <dbl>,
#   freq_phys_distress <dbl>, freq_mental_distress <dbl>, …
…
