432-2023 - Lab 2
…
Loading the Question 1 Data

I have provided the saved lab2q1.Rds file to you on the 432-data page. I encourage you to load it using the code below.

library(janitor)
library(tidyverse)

knitr::opts_chunk$set(comment = NA)

lab2q1 <- read_rds("https://raw.githubusercontent.com/THOMASELOVE/432-data/master/data/lab2q1.Rds")

lab2q1

# A tibble: 2,295 × 5
   seqn  wtint2yr ridageyr hsd010 paq665
   <chr>    <dbl>    <dbl> <fct>  <fct> 
 1 93717   53249.       22 2      2     
 2 93718   20257.       45 3      1     
 3 93729   11760.       42 4      2     
 4 93738   59333.       26 3      2     
 5 93746   27135.       25 2      2     
 6 93755   30922.       26 2      1     
 7 93761   18939.       44 3      2     
 8 93763  103670.       40 3      1     
 9 93766   16414.       36 4      2     
10 93774  232377.       41 <NA>   1     
# … with 2,285 more rows
…
Here’s the approach I took to load and view the hbp3456 data.

library(janitor)
library(tidyverse)

knitr::opts_chunk$set(comment = NA)

hbp3456 <- read_csv("https://raw.githubusercontent.com/THOMASELOVE/432-data/master/data/hbp3456.csv", show_col_types = FALSE) |>
  clean_names() |>
  mutate(record = as.character(record))

hbp3456

# A tibble: 3,456 × 23
   record practice provider   age race     eth_hisp sex   insura…¹ income hsgrad
   <chr>  <chr>    <chr>    <dbl> <chr>    <chr>    <chr> <chr>     <dbl>  <dbl>
 1 900018 Walnut   W_05        64 <NA>     <NA>     F     Medicare  15600   83  
 2 900024 King     K_07        74 AA_Black No       F     Medicare  16200   92.8
 3 900037 Sycamore S_06        60 AA_Black No       F     Commerc…  21400   79  
 4 900043 Highland H_07        46 White    Yes      F     Medicaid  38300   83.5
 5 900057 Sycamore S_04        59 AA_Black No       M     Commerc…  23200   78.7
 6 900062 Elm      E_03        54 AA_Black No       M     Commerc…  48600   85.5
 7 900076 Plympton P_03        74 White    No       M     Commerc…  64200   92.9
 8 900082 Elm      E_06        73 White    No       M     Medicare  48600   85.5
 9 900097 Sycamore S_10        58 AA_Black No       F     Commerc…  29900   86.2
10 900101 Center   C_01        46 AA_Black No       M     Uninsur…  63600   97.5
# … with 3,446 more rows, 13 more variables: tobacco <chr>, depr_diag <chr>,
#   height <dbl>, weight <dbl>, ldl <dbl>, statin <chr>, bp_med <chr>,
#   sbp <dbl>, dbp <dbl>, visits_1 <dbl>, visits_2 <dbl>, acearb <chr>,
#   betab <chr>, and abbreviated variable name ¹​insurance
…
